﻿sys_file_group_map_id	sys_file_group_id	sys_file_id	created_date	created_by	modified_date	modified_by	owned_date	owned_by
9	3	4	2009-09-03 05:31:30	1	\N	1	2009-09-03 05:31:30	1
10	3	5	2009-09-03 05:31:30	1	\N	1	2009-09-03 05:31:30	1
11	2	14	2009-09-16 06:34:14	1	\N	1	2009-09-16 06:34:14	1
12	2	15	2009-09-16 06:34:14	1	\N	1	2009-09-16 06:34:14	1
20	2	16	2009-11-05 01:39:25	1	\N	1	2009-11-05 01:39:25	1
21	2	17	2009-11-05 01:39:25	1	\N	1	2009-11-05 01:39:25	1
24	2	20	2009-11-05 01:39:25	1	\N	1	2009-11-05 01:39:25	1
31	7	22	2009-11-06 13:28:49	1	\N	1	2009-11-06 13:28:49	1
32	7	24	2009-11-06 13:28:49	1	\N	1	2009-11-06 13:28:49	1
33	7	25	2009-11-06 13:28:49	1	\N	1	2009-11-06 13:28:49	1
34	7	26	2009-11-06 13:28:49	1	\N	1	2009-11-06 13:28:49	1
