﻿sys_file_id	is_enabled	virtual_file_path	file_name	file_version	file_size	display_name	created_date	created_by	modified_date	modified_by	owned_date	owned_by
4	Y	~/uploads/installers/latest/GrinGlobal_Updater_Setup.msi	GrinGlobal_Updater_Setup.msi	1.10.2.0	827392	GRIN-Global Updater	2009-09-03 05:27:01	1	2018-08-08 17:31:14	1	2009-09-03 05:27:01	1
5	Y	~/uploads/installers/GrinGlobal_Updater_Setup.exe	GrinGlobal_Updater_Setup.exe	14.0.23107.0	591872	GRIN-Global Updater	2009-09-03 05:27:08	1	2018-03-23 16:00:22	1	2009-09-03 05:27:08	1
14	Y	~/uploads/installers/latest/GrinGlobal_Admin_Setup.exe	GrinGlobal_Admin_Setup.exe	14.0.23107.0	591872	GRIN-Global Admin	2009-09-16 06:33:50	1	2018-03-23 15:58:14	1	2009-09-16 06:33:50	1
15	Y	~/uploads/installers/latest/GrinGlobal_Admin_Setup.msi	GrinGlobal_Admin_Setup.msi	1.10.3.0	1593344	GRIN-Global Admin	2009-09-16 06:33:58	1	2018-08-08 17:31:14	1	2009-09-16 06:33:58	1
16	Y	~/uploads/installers/latest/GrinGlobal_Database_Setup.exe	GrinGlobal_Database_Setup.exe	14.0.23107.0	598016	GRIN-Global Database	2009-11-05 01:31:58	1	2018-12-11 01:03:20	1	2009-11-05 01:31:58	1
17	Y	~/uploads/installers/latest/GrinGlobal_Database_Setup.msi	GrinGlobal_Database_Setup.msi	1.10.5.4	2027520	GRIN-Global Database	2009-11-05 01:32:04	1	2019-06-19 21:39:46	1	2009-11-05 01:32:04	1
20	Y	~/uploads/installers/latest/GrinGlobal_Web_Setup.msi	GrinGlobal_Web_Setup.msi	1.10.5.0	3127999	GRIN-Global Web Application	2009-11-05 01:38:34	1	2019-06-24 18:54:57	1	2009-11-05 01:38:34	1
22	Y	~/uploads/installers/latest/accession_data.cab	accession_data.cab	2010.0921.0142	11586891	Accession Data	2009-11-06 13:27:08	1	2010-09-29 09:31:32	1	2009-11-06 13:27:08	1
24	Y	~/uploads/installers/latest/observation_data.cab	observation_data.cab	2010.0921.0142	5138956	Observation Data	2009-11-06 13:27:19	1	2010-09-29 09:31:32	1	2009-11-06 13:27:19	1
25	Y	~/uploads/installers/latest/order_data.cab	order_data.cab	2010.0921.0142	10799235	Order Data	2009-11-06 13:27:22	1	2010-09-29 09:31:32	1	2009-11-06 13:27:22	1
26	Y	~/uploads/installers/latest/taxonomy_data.cab	taxonomy_data.cab	2010.0921.0142	6114829	Taxonomy Data	2009-11-06 13:27:28	1	2010-09-29 09:31:32	1	2009-11-06 13:27:28	1
